{
  "jedi.enable": true,
  "jedi.startupMessage": true,
  "jedi.markupKindPreferred": "plaintext",
  "jedi.trace.server": true,
  "jedi.jediSettings.autoImportModules": [],
  "jedi.executable.command": "jedi-language-server",
  "jedi.executable.args": [],
  "jedi.completion.disableSnippets": false,
  "jedi.diagnostics.enable": true,
  "jedi.diagnostics.didOpen": true,
  "jedi.diagnostics.didChange": true,
  "jedi.diagnostics.didSave": true,
  "jedi.workspace.extraPaths": [],
  "python.linting.flake8Enabled": true,
  "python.linting.enabled": true,
  "jedi.jediSettings.autoImportModules": ["numpy", "pandas"],
  "diagnostic-languageserver.filetypes": {
    "python": "flake8"
  },
  "languageserver": {
    "dls": {
      "command": "diagnostic-languageserver",
      "args": ["--stdio", "--log-level", "2"],
      "filetypes": [ "sh", "email", "python", "bash" ],
      "initializationOptions": {
        "linters": {
			"flake8": {
			  "command": "flake8"
			},
			"shellcheck": {
				"command": "shellcheck",
				"debounce": 100,
				"args": [
					"--format",
					"json",
					"-"
				],
				"sourceName": "shellcheck",
				"parseJson": {
					"line": "line",
					"column": "column",
					"endLine": "endLine",
					"endColumn": "endColumn",
					"message": "${message} [${code}]",
					"security": "level"
				},
				"securities": {
					"error": "error",
					"warning": "warning",
					"info": "info",
					"style": "hint"
				}
			}
		},
		"filetypes": {
			"python": "flake8"
		}
	  }
	}
  }
}
